<?xml version="1.0" encoding="UTF-8" standalone="no"?>
<svg
   xmlns:dc="http://purl.org/dc/elements/1.1/"
   xmlns:cc="http://creativecommons.org/ns#"
   xmlns:rdf="http://www.w3.org/1999/02/22-rdf-syntax-ns#"
   xmlns:svg="http://www.w3.org/2000/svg"
   xmlns="http://www.w3.org/2000/svg"
   xmlns:sodipodi="http://sodipodi.sourceforge.net/DTD/sodipodi-0.dtd"
   xmlns:inkscape="http://www.inkscape.org/namespaces/inkscape"
   inkscape:export-ydpi="300"
   inkscape:export-xdpi="300"
   inkscape:export-filename="/home/kesmarag/GitLab/lectures/images/lorenz.png"
   sodipodi:docname="lorenz.svg"
   inkscape:version="1.0beta2 (unknown)"
   id="svg8"
   version="1.1"
   viewBox="0 0 105.65041 47.054693"
   height="189.70081"
   width="425.92917">
  <defs
     id="defs2">
    <marker
       inkscape:isstock="true"
       style="overflow:visible"
       id="marker1196"
       refX="0"
       refY="0"
       orient="auto"
       inkscape:stockid="Arrow1Lend">
      <path
         inkscape:connector-curvature="0"
         transform="matrix(-0.8,0,0,-0.8,-10,0)"
         style="fill:#000000;fill-opacity:1;fill-rule:evenodd;stroke:#000000;stroke-width:1pt;stroke-opacity:1"
         d="M 0,0 5,-5 -12.5,0 5,5 Z"
         id="path1194" />
    </marker>
    <marker
       inkscape:collect="always"
       inkscape:stockid="Arrow1Lend"
       orient="auto"
       refY="0"
       refX="0"
       id="marker1168"
       style="overflow:visible"
       inkscape:isstock="true">
      <path
         inkscape:connector-curvature="0"
         id="path1166"
         d="M 0,0 5,-5 -12.5,0 5,5 Z"
         style="fill:#000000;fill-opacity:1;fill-rule:evenodd;stroke:#000000;stroke-width:1pt;stroke-opacity:1"
         transform="matrix(-0.8,0,0,-0.8,-10,0)" />
    </marker>
    <marker
       inkscape:collect="always"
       inkscape:isstock="true"
       style="overflow:visible"
       id="Arrow1Lend"
       refX="0"
       refY="0"
       orient="auto"
       inkscape:stockid="Arrow1Lend">
      <path
         inkscape:connector-curvature="0"
         transform="matrix(-0.8,0,0,-0.8,-10,0)"
         style="fill:#db3279;fill-opacity:1;fill-rule:evenodd;stroke:#db3279;stroke-width:1pt;stroke-opacity:1"
         d="M 0,0 5,-5 -12.5,0 5,5 Z"
         id="path875" />
    </marker>
  </defs>
  <sodipodi:namedview
     fit-margin-bottom="0"
     fit-margin-right="0"
     fit-margin-left="0"
     fit-margin-top="0"
     inkscape:window-maximized="1"
     inkscape:window-y="27"
     inkscape:window-x="0"
     inkscape:window-height="1016"
     inkscape:window-width="1920"
     units="px"
     borderlayer="false"
     showgrid="false"
     inkscape:document-rotation="0"
     inkscape:current-layer="layer1"
     inkscape:document-units="mm"
     inkscape:cy="86.130765"
     inkscape:cx="140.44393"
     inkscape:zoom="1.3515604"
     inkscape:pageshadow="2"
     inkscape:pageopacity="0.0"
     borderopacity="1.0"
     bordercolor="#666666"
     pagecolor="#ffffff"
     id="base" />
  <metadata
     id="metadata5">
    <rdf:RDF>
      <cc:Work
         rdf:about="">
        <dc:format>image/svg+xml</dc:format>
        <dc:type
           rdf:resource="http://purl.org/dc/dcmitype/StillImage" />
        <dc:title></dc:title>
      </cc:Work>
    </rdf:RDF>
  </metadata>
  <g
     transform="translate(-9.5433676,-202.84805)"
     id="layer1"
     inkscape:groupmode="layer"
     inkscape:label="Layer 1">
    <path
       inkscape:connector-curvature="0"
       id="path834"
       d="m 16.150314,249.90275 c 0,-45.14747 0,-45.51452 0,-45.51452"
       style="fill:none;stroke:#000000;stroke-width:0.248047px;stroke-linecap:butt;stroke-linejoin:miter;stroke-opacity:1;marker-end:url(#marker1168)" />
    <path
       inkscape:connector-curvature="0"
       id="path836"
       d="M 9.5433676,241.09349 H 77.815151"
       style="fill:none;stroke:#000000;stroke-width:0.248047px;stroke-linecap:butt;stroke-linejoin:miter;stroke-opacity:1;marker-end:url(#marker1196)" />
    <path
       sodipodi:nodetypes="ccccccc"
       inkscape:connector-curvature="0"
       id="path844"
       d="m 71.282787,209.26274 -5.583162,12.00737 -8.21974,8.63205 -14.133846,5.73816 -12.17292,3.10685 -15.022805,2.34632 z"
       style="fill:none;stroke:#000000;stroke-width:0.248047px;stroke-linecap:butt;stroke-linejoin:miter;stroke-opacity:1" />
    <text
       id="text850"
       y="206.2235"
       x="11.011579"
       style="font-style:normal;font-weight:normal;font-size:4.63021px;line-height:1.25;font-family:sans-serif;letter-spacing:0px;word-spacing:0px;fill:#000000;fill-opacity:1;stroke:none;stroke-width:0.248047"
       xml:space="preserve"><tspan
         style="stroke-width:0.248047"
         y="206.2235"
         x="11.011579"
         id="tspan848"
         sodipodi:role="line">Φ</tspan></text>
    <text
       id="text854"
       y="247.33336"
       x="75.979889"
       style="font-style:normal;font-weight:normal;font-size:4.63021px;line-height:1.25;font-family:sans-serif;letter-spacing:0px;word-spacing:0px;fill:#000000;fill-opacity:1;stroke:none;stroke-width:0.248047"
       xml:space="preserve"><tspan
         style="font-style:italic;font-variant:normal;font-weight:normal;font-stretch:normal;font-family:sans-serif;-inkscape-font-specification:'sans-serif Italic';stroke-width:0.248047"
         y="247.33336"
         x="75.979889"
         id="tspan852"
         sodipodi:role="line">RF</tspan></text>
    <path
       inkscape:connector-curvature="0"
       id="path856"
       d="M 71.282787,241.09349 V 209.26274 H 15.783262"
       style="fill:none;stroke:#000000;stroke-width:0.248047px;stroke-linecap:butt;stroke-linejoin:miter;stroke-opacity:1" />
    <text
       id="text860"
       y="227.87959"
       x="47.349785"
       style="font-style:normal;font-weight:normal;font-size:4.63021px;line-height:1.25;font-family:sans-serif;letter-spacing:0px;word-spacing:0px;fill:#000000;fill-opacity:1;stroke:none;stroke-width:0.248047"
       xml:space="preserve"><tspan
         style="stroke-width:0.248047"
         y="227.87959"
         x="47.349785"
         id="tspan858"
         sodipodi:role="line">A</tspan></text>
    <text
       id="text864"
       y="234.85359"
       x="59.829575"
       style="font-style:normal;font-weight:normal;font-size:4.63021px;line-height:1.25;font-family:sans-serif;letter-spacing:0px;word-spacing:0px;fill:#000000;fill-opacity:1;stroke:none;stroke-width:0.248047"
       xml:space="preserve"><tspan
         style="stroke-width:0.248047"
         y="234.85359"
         x="59.829575"
         id="tspan862"
         sodipodi:role="line">B</tspan></text>
    <text
       id="text868"
       y="229.76883"
       x="76.099724"
       style="font-style:normal;font-weight:normal;font-size:4.96094px;line-height:1.25;font-family:sans-serif;letter-spacing:0px;word-spacing:0px;fill:#db3279;fill-opacity:1;stroke:none;stroke-width:0.248047"
       xml:space="preserve"><tspan
         style="fill:#db3279;stroke-width:0.248047"
         y="229.76883"
         x="76.099724"
         id="tspan866"
         sodipodi:role="line">καμπύλη Lorenz</tspan></text>
    <path
       inkscape:connector-curvature="0"
       id="path870"
       d="M 75.245783,228.24665 C 62.765996,224.94317 62.765996,224.94317 62.765996,224.94317"
       style="fill:#db3279;stroke:#db3279;stroke-width:0.248438;stroke-linecap:butt;stroke-linejoin:miter;stroke-miterlimit:4;stroke-dasharray:none;stroke-opacity:1;marker-end:url(#Arrow1Lend)" />
    <text
       id="text1230"
       y="244.7507"
       x="70.156044"
       style="font-style:normal;font-weight:normal;font-size:2.97656px;line-height:1.25;font-family:sans-serif;letter-spacing:0px;word-spacing:0px;fill:#000000;fill-opacity:1;stroke:none;stroke-width:0.248047"
       xml:space="preserve"><tspan
         style="stroke-width:0.248047"
         y="244.7507"
         x="70.156044"
         id="tspan1228"
         sodipodi:role="line">1</tspan></text>
    <text
       xml:space="preserve"
       style="font-style:normal;font-weight:normal;font-size:2.97656px;line-height:1.25;font-family:sans-serif;letter-spacing:0px;word-spacing:0px;fill:#000000;fill-opacity:1;stroke:none;stroke-width:0.248047"
       x="12.974949"
       y="211.34602"
       id="text1230-3"><tspan
         sodipodi:role="line"
         id="tspan1228-6"
         x="12.974949"
         y="211.34602"
         style="stroke-width:0.248047">1</tspan></text>
  </g>
</svg>
